../images/pic1.jpg,Louie,Manaog,Nunag,23,louienunag@yahoo.com,louie.n,12345,,
../images/pic2.jpg,Megan,Lauren,Young,25,megan.young@yahoo.com,megan.y,qwert,,
../images/pic3.jpg,Marky,Cruz,Cielo,24,marky_cielo@gmail.com,marky.c,asdfg,,
,,,,,,,,,
,,,,,,,,,
,,,,,,,,,
,,,,,,,,,
,,,,,,,,,
,,,,,,,,,
,,,,,,,,,
,,,,,,,,,
,,,,,,,,,
,,,,,,,,,
,,,,,,,,,
,,,,,,,,,
,,,,,,,,,
,,,,,,,,,
,,,,,,,,,
,,,,,,,,,
,,,,,,,,,
,,,,,,,,,
,,,,,,,,,
,,,,,,,,,
,,,,,,,,,
,,,,,,,,,
,,,,,,,,,
,,,,,,,,,
,,,,,,,,,
,,,,,,,,,
,,,,,,,,,
,,,,,,,,,
,,,,,,,,,
,,,,,,,,,
,,,,,,,,,
,,,,,,,,,
,,,,,,,,,
,,,,,,,,,
,,,,,,,,,
,,,,,,,,,
,,,,,,,,,
,,,,,,,,,
,,,,,,,,,
,,,,,,,,,
,,,,,,,,,
,,,,,,,,,
,,,,,,,,,
,,,,,,,,,
,,,,,,,,,
,,,,,,,,,
,,,,,,,,,
,,,,,,,,,
,,,,,,,,,
,,,,,,,,,
,,,,,,,,,
,,,,,,,,,
,,,,,,,,,
,,,,,,,,,
,,,,,,,,,
,,,,,,,,,
,,,,,,,,,
,,,,,,,,,
,,,,,,,,,
,,,,,,,,,
,,,,,,,,,
,,,,,,,,,
,,,,,,,,,
,,,,,,,,,
,,,,,,,,,
,,,,,,,,,
,,,,,,,,,
,,,,,,,,,
,,,,,,,,,
,,,,,,,,,
,,,,,,,,,
,,,,,,,,,
,,,,,,,,,
,,,,,,,,,
,,,,,,,,,
,,,,,,,,,
,,,,,,,,,
,,,,,,,,,
,,,,,,,,,
,,,,,,,,,
,,,,,,,,,
,,,,,,,,,
,,,,,,,,,
,,,,,,,,,
,,,,,,,,,
,,,,,,,,,
,,,,,,,,,
,,,,,,,,,
,,,,,,,,,
,,,,,,,,,
,,,,,,,,,
,,,,,,,,,
,,,,,,,,,
,,,,,,,,,
,,,,,,,,,
,,,,,,,,,
,,,,,,,,,
,Chris,Cruz,Nunag,29,chirs.n@yahoo.com,chris,12345
,louie,Cruz,Manaog,28,nunag@gmail.com,louiec,12345
,test1,test1,test1,1,test1@gmail.com,test1,12345
,test2,test2,test2,2,test2@gmail.com,test2,test2
,test3,test3,test3,3,test3@gmail.com,test3,12345
,test5,test5,test5,5,test5@gmail.com,test5,12345
,test6,test6,test6,6,test6@gmail.com,test6,12345
,,,,,,,
../images/20210518110107-R06d6c8b5417f76960895c7121f53e128.jpg,test8,test8,test8,8,test8@gmail.com,test8,12345
C:/wamp/www/yns-dev-exercises/images/20210519085652-20210519083620-pic2.jpg,test7,Cruz,nunag,8,chirs.n@yahoo.com,test7,12345
